Tick, Second, Min, Hour, Day, Month, Year, amountA, amountB
0, 0.0, 0.0, 0.0, 0.0, 0.0, 0.0, 237119.22811911732, 1475.0079852550593
1, 86400.0, 1440.0, 24.0, 1.0, 0.03333333333333333, 0.0027397260273972603, 237119.2282081096, 1475.007984703141
2, 172800.0, 2880.0, 48.0, 2.0, 0.06666666666666667, 0.005479452054794521, 237119.22823461666, 1475.0079845387475
3, 259200.0, 4320.0, 72.0, 3.0, 0.1, 0.00821917808219178, 237119.22820963053, 1475.0079846946421
4, 345600.0, 5760.0, 96.0, 4.0, 0.13333333333333333, 0.010958904109589041, 237119.22823648487, 1475.007984528095
5, 432000.0, 7200.0, 120.0, 5.0, 0.16666666666666666, 0.0136986301369863, 237119.22823541702, 1475.0079845347575
6, 518400.0, 8640.0, 144.0, 6.0, 0.2, 0.01643835616438356, 237119.22830568595, 1475.0079840989586
7, 604800.0, 10080.0, 168.0, 7.0, 0.23333333333333334, 0.019178082191780823, 237119.2283591978, 1475.007983767085
8, 691200.0, 11520.0, 192.0, 8.0, 0.26666666666666666, 0.021917808219178082, 237119.22838223603, 1475.007983624205
9, 777600.0, 12960.0, 216.0, 9.0, 0.3, 0.024657534246575342, 237119.2283607952, 1475.0079837579794
10, 864000.0, 14400.0, 240.0, 10.0, 0.3333333333333333, 0.0273972602739726, 237119.228325961, 1475.007983975319
11, 950400.0, 15840.0, 264.0, 11.0, 0.36666666666666664, 0.030136986301369864, 237119.22832054805, 1475.0079840090916
12, 1036800.0, 17280.0, 288.0, 12.0, 0.4, 0.03287671232876712, 237119.22837055157, 1475.0079836989764
13, 1123200.0, 18720.0, 312.0, 13.0, 0.43333333333333335, 0.03561643835616438, 237119.22834316254, 1475.0079838698634
14, 1209600.0, 20160.0, 336.0, 14.0, 0.4666666666666667, 0.038356164383561646, 237119.22838953743, 1475.007983582252
15, 1296000.0, 21600.0, 360.0, 15.0, 0.5, 0.0410958904109589, 237119.22842757488, 1475.0079833463487
16, 1382400.0, 23040.0, 384.0, 16.0, 0.5333333333333333, 0.043835616438356165, 237119.22841249782, 1475.0079834404185
17, 1468800.0, 24480.0, 408.0, 17.0, 0.5666666666666667, 0.04657534246575343, 237119.22832828187, 1475.0079839658629
18, 1555200.0, 25920.0, 432.0, 18.0, 0.6, 0.049315068493150684, 237119.22832955117, 1475.0079839579907
19, 1641600.0, 27360.0, 456.0, 19.0, 0.6333333333333333, 0.052054794520547946, 237119.2284894154, 1475.0079829665335
20, 1728000.0, 28800.0, 480.0, 20.0, 0.6666666666666666, 0.0547945205479452, 237119.2284839081, 1475.007983000895
21, 1814400.0, 30240.0, 504.0, 21.0, 0.7, 0.057534246575342465, 237119.22856894953, 1475.0079824734787
22, 1900800.0, 31680.0, 528.0, 22.0, 0.7333333333333333, 0.06027397260273973, 237119.2286414299, 1475.007982023965
23, 1987200.0, 33120.0, 552.0, 23.0, 0.7666666666666667, 0.06301369863013699, 237119.2286281616, 1475.007982106749
24, 2073600.0, 34560.0, 576.0, 24.0, 0.8, 0.06575342465753424, 237119.22864841344, 1475.00798198115
25, 2160000.0, 36000.0, 600.0, 25.0, 0.8333333333333334, 0.0684931506849315, 237119.22863569448, 1475.0079820605065
26, 2246400.0, 37440.0, 624.0, 26.0, 0.8666666666666667, 0.07123287671232877, 237119.22869301095, 1475.0079817050373
27, 2332800.0, 38880.0, 648.0, 27.0, 0.9, 0.07397260273972603, 237119.22874972963, 1475.0079813532752
28, 2419200.0, 40320.0, 672.0, 28.0, 0.9333333333333333, 0.07671232876712329, 237119.22868162303, 1475.0079817782093
29, 2505600.0, 41760.0, 696.0, 29.0, 0.9666666666666667, 0.07945205479452055, 237119.22863352025, 1475.0079820783346
30, 2592000.0, 43200.0, 720.0, 30.0, 1.0, 0.0821917808219178, 237119.22862079885, 1475.0079821577067
31, 2678400.0, 44640.0, 744.0, 31.0, 1.0333333333333334, 0.08493150684931507, 237119.22862039067, 1475.0079821602533
32, 2764800.0, 46080.0, 768.0, 32.0, 1.0666666666666667, 0.08767123287671233, 237119.2286203762, 1475.0079821603435
33, 2851200.0, 47520.0, 792.0, 33.0, 1.1, 0.09041095890410959, 237119.22844202336, 1475.0079832731317
34, 2937600.0, 48960.0, 816.0, 34.0, 1.1333333333333333, 0.09315068493150686, 237119.2284209941, 1475.0079834043386
35, 3024000.0, 50400.0, 840.0, 35.0, 1.1666666666666667, 0.0958904109589041, 237119.22842574818, 1475.0079833748546
36, 3110400.0, 51840.0, 864.0, 36.0, 1.2, 0.09863013698630137, 237119.22842286993, 1475.0079833928125
37, 3196800.0, 53280.0, 888.0, 37.0, 1.2333333333333334, 0.10136986301369863, 237119.22847300538, 1475.007983081879
38, 3283200.0, 54720.0, 912.0, 38.0, 1.2666666666666666, 0.10410958904109589, 237119.22842378885, 1475.007983388953
39, 3369600.0, 56160.0, 936.0, 39.0, 1.3, 0.10684931506849316, 237119.22839874547, 1475.0079835452052
40, 3456000.0, 57600.0, 960.0, 40.0, 1.3333333333333333, 0.1095890410958904, 237119.22838750583, 1475.0079836153323
41, 3542400.0, 59040.0, 984.0, 41.0, 1.3666666666666667, 0.11232876712328767, 237119.22860519972, 1475.0079822652226
42, 3628800.0, 60480.0, 1008.0, 42.0, 1.4, 0.11506849315068493, 237119.22867344553, 1475.0079818419708
43, 3715200.0, 61920.0, 1032.0, 43.0, 1.4333333333333333, 0.1178082191780822, 237119.2286718273, 1475.0079818520676
44, 3801600.0, 63360.0, 1056.0, 44.0, 1.4666666666666666, 0.12054794520547946, 237119.22862616397, 1475.0079821369725
45, 3888000.0, 64800.0, 1080.0, 45.0, 1.5, 0.1232876712328767, 237119.22860496465, 1475.0079822692403
46, 3974400.0, 66240.0, 1104.0, 46.0, 1.5333333333333334, 0.12602739726027398, 237119.2286135788, 1475.0079822158164
47, 4060800.0, 67680.0, 1128.0, 47.0, 1.5666666666666667, 0.12876712328767123, 237119.22862042827, 1475.0079821733368
48, 4147200.0, 69120.0, 1152.0, 48.0, 1.6, 0.13150684931506848, 237119.2286114393, 1475.0079822294215
49, 4233600.0, 70560.0, 1176.0, 49.0, 1.6333333333333333, 0.13424657534246576, 237119.22867266653, 1475.007981849698
50, 4320000.0, 72000.0, 1200.0, 50.0, 1.6666666666666667, 0.136986301369863, 237119.22866615327, 1475.0079818903357
51, 4406400.0, 73440.0, 1224.0, 51.0, 1.7, 0.13972602739726028, 237119.2287289201, 1475.007981501064
52, 4492800.0, 74880.0, 1248.0, 52.0, 1.7333333333333334, 0.14246575342465753, 237119.22877551077, 1475.0079812121146
53, 4579200.0, 76320.0, 1272.0, 53.0, 1.7666666666666666, 0.14520547945205478, 237119.22875462915, 1475.0079813424002
54, 4665600.0, 77760.0, 1296.0, 54.0, 1.8, 0.14794520547945206, 237119.22873398708, 1475.0079814711912
55, 4752000.0, 79200.0, 1320.0, 55.0, 1.8333333333333333, 0.1506849315068493, 237119.22874871985, 1475.0079813798204
56, 4838400.0, 80640.0, 1344.0, 56.0, 1.8666666666666667, 0.15342465753424658, 237119.22875829684, 1475.0079813204254
57, 4924800.0, 82080.0, 1368.0, 57.0, 1.9, 0.15616438356164383, 237119.2287168721, 1475.0079815788847
58, 5011200.0, 83520.0, 1392.0, 58.0, 1.9333333333333333, 0.1589041095890411, 237119.2287217617, 1475.0079815485599
59, 5097600.0, 84960.0, 1416.0, 59.0, 1.9666666666666666, 0.16164383561643836, 237119.2287136843, 1475.0079815989568
60, 5184000.0, 86400.0, 1440.0, 60.0, 2.0, 0.1643835616438356, 237119.22869375543, 1475.0079817232981
61, 5270400.0, 87840.0, 1464.0, 61.0, 2.033333333333333, 0.16712328767123288, 237119.22868657677, 1475.0079817680876
62, 5356800.0, 89280.0, 1488.0, 62.0, 2.066666666666667, 0.16986301369863013, 237119.22872300682, 1475.0079815421532
63, 5443200.0, 90720.0, 1512.0, 63.0, 2.1, 0.1726027397260274, 237119.22864137913, 1475.0079820514488
64, 5529600.0, 92160.0, 1536.0, 64.0, 2.1333333333333333, 0.17534246575342466, 237119.228537977, 1475.0079826966005
65, 5616000.0, 93600.0, 1560.0, 65.0, 2.1666666666666665, 0.1780821917808219, 237119.22845768422, 1475.0079831975672
66, 5702400.0, 95040.0, 1584.0, 66.0, 2.2, 0.18082191780821918, 237119.22846996167, 1475.007983121424
67, 5788800.0, 96480.0, 1608.0, 67.0, 2.2333333333333334, 0.18356164383561643, 237119.22849118742, 1475.0079829897848
68, 5875200.0, 97920.0, 1632.0, 68.0, 2.2666666666666666, 0.1863013698630137, 237119.22840999925, 1475.007983496338
69, 5961600.0, 99360.0, 1656.0, 69.0, 2.3, 0.18904109589041096, 237119.2284655106, 1475.0079831520638
70, 6048000.0, 100800.0, 1680.0, 70.0, 2.3333333333333335, 0.1917808219178082, 237119.22850152527, 1475.0079829287056
71, 6134400.0, 102240.0, 1704.0, 71.0, 2.3666666666666667, 0.19452054794520549, 237119.22852221993, 1475.0079828003597
72, 6220800.0, 103680.0, 1728.0, 72.0, 2.4, 0.19726027397260273, 237119.22850977973, 1475.0079828779774
73, 6307200.0, 105120.0, 1752.0, 73.0, 2.433333333333333, 0.2, 237119.22851676802, 1475.007982834637
74, 6393600.0, 106560.0, 1776.0, 74.0, 2.466666666666667, 0.20273972602739726, 237119.22850601393, 1475.0079829017345
75, 6480000.0, 108000.0, 1800.0, 75.0, 2.5, 0.2054794520547945, 237119.22855829503, 1475.0079825774937
76, 6566400.0, 109440.0, 1824.0, 76.0, 2.533333333333333, 0.20821917808219179, 237119.22849422722, 1475.0079829772287
77, 6652800.0, 110880.0, 1848.0, 77.0, 2.566666666666667, 0.21095890410958903, 237119.22848786568, 1475.0079830169202
78, 6739200.0, 112320.0, 1872.0, 78.0, 2.6, 0.2136986301369863, 237119.2284471654, 1475.0079832708593
79, 6825600.0, 113760.0, 1896.0, 79.0, 2.6333333333333333, 0.21643835616438356, 237119.2283650592, 1475.0079837831404
80, 6912000.0, 115200.0, 1920.0, 80.0, 2.6666666666666665, 0.2191780821917808, 237119.22836288897, 1475.0079837966812
81, 6998400.0, 116640.0, 1944.0, 81.0, 2.7, 0.2219178082191781, 237119.2283858088, 1475.0079836545353
82, 7084800.0, 118080.0, 1968.0, 82.0, 2.7333333333333334, 0.22465753424657534, 237119.2284756293, 1475.00798309748
83, 7171200.0, 119520.0, 1992.0, 83.0, 2.7666666666666666, 0.2273972602739726, 237119.2284944919, 1475.0079829804968
84, 7257600.0, 120960.0, 2016.0, 84.0, 2.8, 0.23013698630136986, 237119.2285062638, 1475.007982907489
85, 7344000.0, 122400.0, 2040.0, 85.0, 2.8333333333333335, 0.2328767123287671, 237119.22853002063, 1475.0079827601521
86, 7430400.0, 123840.0, 2064.0, 86.0, 2.8666666666666667, 0.2356164383561644, 237119.22854054612, 1475.0079826948745
87, 7516800.0, 125280.0, 2088.0, 87.0, 2.9, 0.23835616438356164, 237119.2285468966, 1475.0079826554895
88, 7603200.0, 126720.0, 2112.0, 88.0, 2.933333333333333, 0.2410958904109589, 237119.22855474497, 1475.007982606815
89, 7689600.0, 128160.0, 2136.0, 89.0, 2.966666666666667, 0.24383561643835616, 237119.22857110942, 1475.0079825053247
90, 7776000.0, 129600.0, 2160.0, 90.0, 3.0, 0.2465753424657534, 237119.22849896448, 1475.007982955455
91, 7862400.0, 131040.0, 2184.0, 91.0, 3.033333333333333, 0.2493150684931507, 237119.22849464853, 1475.0079829823835
92, 7948800.0, 132480.0, 2208.0, 92.0, 3.066666666666667, 0.25205479452054796, 237119.22864160626, 1475.0079820709705
93, 8035200.0, 133920.0, 2232.0, 93.0, 3.1, 0.2547945205479452, 237119.22870402096, 1475.0079816838825
94, 8121600.0, 135360.0, 2256.0, 94.0, 3.1333333333333333, 0.25753424657534246, 237119.2286878671, 1475.0079817846706
95, 8208000.0, 136800.0, 2280.0, 95.0, 3.1666666666666665, 0.2602739726027397, 237119.2287625177, 1475.0079813216971
96, 8294400.0, 138240.0, 2304.0, 96.0, 3.2, 0.26301369863013696, 237119.2288044686, 1475.007981061523
97, 8380800.0, 139680.0, 2328.0, 97.0, 3.2333333333333334, 0.26575342465753427, 237119.2287913335, 1475.0079811434762
98, 8467200.0, 141120.0, 2352.0, 98.0, 3.2666666666666666, 0.2684931506849315, 237119.2286986079, 1475.0079817220144
99, 8553600.0, 142560.0, 2376.0, 99.0, 3.3, 0.27123287671232876, 237119.22861206956, 1475.0079822619489
100, 8640000.0, 144000.0, 2400.0, 100.0, 3.3333333333333335, 0.273972602739726, 237119.22857308108, 1475.0079825052078
